<?xml version="1.0" encoding="UTF-8"?>
<svg width="831px" height="48px" viewBox="0 0 831 48" version="1.1" xmlns="http://www.w3.org/2000/svg" xmlns:xlink="http://www.w3.org/1999/xlink">
    <!-- Generator: Sketch 46.2 (44496) - http://www.bohemiancoding.com/sketch -->
    <title>1</title>
    <desc>Created with Sketch.</desc>
    <defs></defs>
    <g id="form" stroke="none" stroke-width="1" fill="none" fill-rule="evenodd">
        <g id="1">
            <path d="M47.3737015,23.5 L195.359496,23.5" id="Line-2" stroke="#F9A449" stroke-width="5" stroke-linecap="square"></path>
            <path d="M243.373702,24.5 L391.359496,24.5" id="Line-2-Copy" stroke="#B2B2B2" stroke-width="5" stroke-linecap="square"></path>
            <path d="M441.373702,25.5 L589.359496,25.5" id="Line-2-Copy-2" stroke="#B2B2B2" stroke-width="5" stroke-linecap="square"></path>
            <circle id="Oval" fill="#F9A449" cx="22.5" cy="22.5" r="22.5"></circle>
            <circle id="Oval-Copy" fill="#B2B2B2" cx="218.5" cy="23.5" r="22.5"></circle>
            <circle id="Oval-Copy-2" fill="#B2B2B2" cx="416.5" cy="24.5" r="22.5"></circle>
            <circle id="Oval-Copy-3" fill="#B2B2B2" cx="612.5" cy="25.5" r="22.5"></circle>
            <path d="M637.373702,25.5 L785.359496,25.5" id="Line-2-Copy-2" stroke="#B2B2B2" stroke-width="5" stroke-linecap="square"></path>
            <circle id="Oval-Copy-3" fill="#B2B2B2" cx="808.5" cy="25.5" r="22.5"></circle>
            <circle id="Oval-3" fill="#FFFFFF" cx="23" cy="22" r="9"></circle>
        </g>
    </g>
</svg>