<?xml version="1.0" encoding="UTF-8"?>
<svg width="823px" height="48px" viewBox="0 0 823 48" version="1.1" xmlns="http://www.w3.org/2000/svg" xmlns:xlink="http://www.w3.org/1999/xlink">
    <!-- Generator: Sketch 46.2 (44496) - http://www.bohemiancoding.com/sketch -->
    <title>3</title>
    <desc>Created with Sketch.</desc>
    <defs></defs>
    <g id="form" stroke="none" stroke-width="1" fill="none" fill-rule="evenodd">
        <g id="3">
            <path d="M47.3743719,23.5 L195.625628,23.5" id="Line-2" stroke="#F9A449" stroke-width="5" stroke-linecap="square"></path>
            <path d="M243.374372,24.5 L391.625628,24.5" id="Line-2-Copy" stroke="#F9A449" stroke-width="5" stroke-linecap="square"></path>
            <path d="M441.374372,25.5 L589.625628,25.5" id="Line-2-Copy-2" stroke="#B2B2B2" stroke-width="5" stroke-linecap="square"></path>
            <circle id="Oval" fill="#F9A449" cx="22.5" cy="22.5" r="22.5"></circle>
            <circle id="Oval-Copy" fill="#F9A449" cx="218.5" cy="23.5" r="22.5"></circle>
            <g id="ic_done_black_24px" transform="translate(10.000000, 10.000000)">
                <polygon id="Shape" points="0 0 24 0 24 24 0 24"></polygon>
                <polygon id="Shape" fill="#FFFFFF" fill-rule="nonzero" points="9 16.2 4.8 12 3.4 13.4 9 19 21 7 19.6 5.6"></polygon>
            </g>
            <g id="ic_done_black_24px" transform="translate(206.000000, 10.000000)">
                <polygon id="Shape" points="0 0 24 0 24 24 0 24"></polygon>
                <polygon id="Shape" fill="#FFFFFF" fill-rule="nonzero" points="9 16.2 4.8 12 3.4 13.4 9 19 21 7 19.6 5.6"></polygon>
            </g>
            <circle id="Oval-Copy-2" fill="#F9A449" cx="416.5" cy="24.5" r="22.5"></circle>
            <circle id="Oval-Copy-3" fill="#B2B2B2" cx="612.5" cy="25.5" r="22.5"></circle>
            <circle id="Oval-3" fill="#FFFFFF" cx="417" cy="24" r="9"></circle>
            <path d="M629.373702,25.5 L777.359496,25.5" id="Line-2-Copy-2" stroke="#B2B2B2" stroke-width="5" stroke-linecap="square"></path>
            <circle id="Oval-Copy-3" fill="#B2B2B2" cx="800.5" cy="25.5" r="22.5"></circle>
        </g>
    </g>
</svg>